<?xml version="1.0" standalone="no"?>
<!DOCTYPE svg PUBLIC "-//W3C//DTD SVG 1.1//EN" "http://www.w3.org/Graphics/SVG/1.1/DTD/svg11.dtd" >
<svg xmlns="http://www.w3.org/2000/svg">
<metadata>Generated by IcoMoon</metadata>
<defs>
<font id="icomoon" horiz-adv-x="1024">
<font-face units-per-em="1024" ascent="960" descent="-64" />
<missing-glyph horiz-adv-x="1024" />
<glyph unicode="&#x20;" horiz-adv-x="512" d="" />
<glyph unicode="&#xe605;" glyph-name="mezcal_ico" d="M664.090 300.672c60.544 154.47 231.322 213.402 231.322 213.402-177.766 10.906-269.696-80.64-315.699-160.128-22.963 85.325-60.902 235.827-67.712 378.214-6.81-142.387-44.749-292.89-67.712-378.214-45.978 79.462-137.933 171.034-315.699 160.128 0 0 170.778-58.931 231.322-213.402-160.64 102.707-359.91 66.074-359.91 66.074 258.509-40.909 306.15-152.653 368.947-220.877 43.93-47.744 143.053-30.003 143.053-30.003s99.123-17.741 143.053 30.003c62.797 68.224 110.438 179.968 368.947 220.877 0 0-199.27 36.634-359.91-66.074z" />
<glyph unicode="&#xf0c9;" glyph-name="menu_mezcal" d="M0 811.725h1024v-83.942h-1024v83.942zM0 475.981h1024v-83.942h-1024v83.942zM0 168.218h1024v-83.942h-1024v83.942z" />
</font></defs></svg>